<svg xmlns="http://www.w3.org/2000/svg" viewBox="0 0 708.66 184.18">
  <title>odilo_logo</title>
  <g id="Layer_2" data-name="Layer 2">
    <g id="Layer_1-2" data-name="Layer 1">
      <g>
        <polygon points="112.7 0 121.16 16.42 109.95 16.42 112.7 0" style="fill: #329e70"/>
        <path d="M88,184.18c-49.48,0-88-38.12-88-88.06s38.57-88,88-88,88.05,38.12,88.05,88S137.54,184.18,88,184.18ZM88,18.56c-43.47,0-76.68,33.21-76.68,77.57S44.58,173.7,88,173.7c43.25,0,76.68-33.21,76.68-77.58S131.3,18.56,88,18.56Z" style="fill: #fff"/>
        <path d="M260.75,182H206.37V10.31h54.39c47.48,0,84.71,37.23,84.71,85.82S308.24,182,260.75,182ZM217.51,20.79V171.47h42.35c41.68,0,74.23-32.32,74.23-75.35s-32.55-75.34-74.23-75.34Z" style="fill: #fff"/>
        <path d="M394,182H382.84V10.31H394Z" style="fill: #fff"/>
        <path d="M530.35,182h-91.4V10.31h11.14V171.47h80.25Z" style="fill: #fff"/>
        <path d="M620.61,184.18c-49.48,0-88.05-38.12-88.05-88.06s38.57-88,88.05-88,88,38.12,88,88S670.1,184.18,620.61,184.18Zm0-165.62c-43.47,0-76.68,33.21-76.68,77.57s33.21,77.58,76.68,77.58c43.25,0,76.69-33.21,76.69-77.58S663.86,18.56,620.61,18.56Z" style="fill: #fff"/>
        <polygon points="63.36 0 63.36 65.64 88.05 47.9 112.74 65.64 112.74 0 63.36 0" style="fill: #18e591"/>
      </g>
    </g>
  </g>
</svg>
